Quality control metrics — metrics • basejump
…
## SingleCellExperiment ====
object <- SingleCellExperiment
object <- calculateMetrics(object)
#> Calculating 100 sample metrics.
#> 497 coding features detected.
#> 0 mitochondrial features detected.
x <- metrics(object)
print(x)
#> # A tibble: 100 x 10
#>    cellID sampleID nCount nFeature nCoding nMito log10FeaturesPe… mitoRatio
#>    <chr>  <fct>     <int>    <int>   <int> <int>            <dbl>     <dbl>
#>  1 cell0… sample1   41054      235   40988    NA            0.514        NA
#>  2 cell0… sample2   49758      246   49642    NA            0.509        NA
#>  3 cell0… sample1   57439      248   57321    NA            0.503        NA
#>  4 cell0… sample2   68140      263   67976    NA            0.501        NA
#>  5 cell0… sample2   63809      245   63684    NA            0.497        NA
#>  6 cell0… sample1   49845      231   49701    NA            0.503        NA
#>  7 cell0… sample1   58662      245   58662    NA            0.501        NA
#>  8 cell0… sample1   43157      226   43049    NA            0.508        NA
#>  9 cell0… sample1   47298      229   47204    NA            0.505        NA
#> 10 cell0… sample1   44743      231   44743    NA            0.508        NA
#> # … with 90 more rows, and 2 more variables: sampleName <fct>,
#> #   interestingGroups <fct>
…
